<svg id="gear" xmlns="http://www.w3.org/2000/svg" width="46.634" height="46.634" viewBox="0 0 46.634 46.634">
  <path id="Path_17" data-name="Path 17" d="M42.873,112H39.112v1.5h3.761a2.259,2.259,0,0,1,2.256,2.256v20.308H1.5V115.761A2.259,2.259,0,0,1,3.761,113.5H7.522V112H3.761A3.765,3.765,0,0,0,0,115.761V139.83a3.765,3.765,0,0,0,3.761,3.761h9.778V146.6H10.53v1.5H36.1v-1.5H33.1v-3.009h9.778a3.765,3.765,0,0,0,3.761-3.761V115.761A3.765,3.765,0,0,0,42.873,112ZM31.591,146.6H15.043v-3.009H31.591Zm11.282-4.513H3.761A2.259,2.259,0,0,1,1.5,139.83v-2.256H45.13v2.256A2.259,2.259,0,0,1,42.873,142.086Zm0,0" transform="translate(0 -101.47)" fill="#fff"/>
  <path id="Path_18" data-name="Path 18" d="M384,400h1.5v1.5H384Zm0,0" transform="translate(-347.896 -362.392)" fill="#fff"/>
  <path id="Path_19" data-name="Path 19" d="M416,400h1.5v1.5H416Zm0,0" transform="translate(-376.888 -362.392)" fill="#fff"/>
  <path id="Path_20" data-name="Path 20" d="M448,400h1.5v1.5H448Zm0,0" transform="translate(-405.879 -362.392)" fill="#fff"/>
  <path id="Path_21" data-name="Path 21" d="M352,336h10.53v1.5H352Zm0,0" transform="translate(-318.905 -304.409)" fill="#fff"/>
  <path id="Path_22" data-name="Path 22" d="M352,304h10.53v1.5H352Zm0,0" transform="translate(-318.905 -275.418)" fill="#fff"/>
  <path id="Path_23" data-name="Path 23" d="M368,272h9.026v1.5H368Zm0,0" transform="translate(-333.401 -246.426)" fill="#fff"/>
  <path id="Path_24" data-name="Path 24" d="M400,240h6.017v1.5H400Zm0,0" transform="translate(-362.392 -217.435)" fill="#fff"/>
  <path id="Path_25" data-name="Path 25" d="M38.017,11.451v2.088H32V33.095H47.043v-8a11.974,11.974,0,0,0,1.707.686l.718,2.8h5.681l.718-2.8a12.048,12.048,0,0,0,2.05-.846l2.489,1.474,4.017-4.016L62.948,19.9A11.959,11.959,0,0,0,63.8,17.85l2.8-.719V11.45l-2.8-.718a11.958,11.958,0,0,0-.847-2.049l1.475-2.49L60.406,2.177,57.917,3.651a11.939,11.939,0,0,0-2.05-.846L55.148,0H49.468l-.718,2.8a12.047,12.047,0,0,0-2.05.846L44.21,2.177,40.193,6.193l1.475,2.49a11.959,11.959,0,0,0-.847,2.049ZM33.5,31.591V15.043h4.513v2.088l2.8.718a11.959,11.959,0,0,0,.847,2.049l-1.475,2.49L44.211,26.4l1.328-.786v5.972Zm8.533-19.616.114-.424a10.477,10.477,0,0,1,1.035-2.505l.22-.38L42.083,6.431,44.45,4.066l2.233,1.323.381-.22a10.442,10.442,0,0,1,2.5-1.035l.424-.114L50.635,1.5h3.345l.644,2.516.424.114a10.442,10.442,0,0,1,2.5,1.035l.381.22,2.232-1.322,2.366,2.365L61.209,8.665l.22.38a10.465,10.465,0,0,1,1.035,2.505l.114.424,2.517.643v3.345l-2.516.644-.114.424a10.477,10.477,0,0,1-1.035,2.505l-.22.38,1.323,2.233-2.366,2.365-2.233-1.322-.381.22a10.442,10.442,0,0,1-2.5,1.035l-.424.114-.644,2.516H50.636l-.644-2.516-.424-.114a10.442,10.442,0,0,1-2.5-1.035l-.381-.22-2.232,1.322L42.084,22.15l1.323-2.233-.22-.38a10.465,10.465,0,0,1-1.035-2.505l-.114-.424-2.517-.643V12.619Zm0,0" transform="translate(-28.991 0)" fill="#fff"/>
  <path id="Path_26" data-name="Path 26" d="M161.026,74.052A9.026,9.026,0,1,0,152,65.026,9.036,9.036,0,0,0,161.026,74.052Zm0-16.548a7.522,7.522,0,1,1-7.522,7.522A7.53,7.53,0,0,1,161.026,57.5Zm0,0" transform="translate(-137.709 -50.735)" fill="#fff"/>
  <path id="Path_27" data-name="Path 27" d="M190.017,100.035A6.017,6.017,0,1,0,184,94.017,6.024,6.024,0,0,0,190.017,100.035Zm0-10.53a4.513,4.513,0,1,1-4.513,4.513A4.517,4.517,0,0,1,190.017,89.5Zm0,0" transform="translate(-166.7 -79.726)" fill="#fff"/>
  <path id="Path_28" data-name="Path 28" d="M224,144h1.5v1.5H224Zm0,0" transform="translate(-202.939 -130.461)" fill="#fff"/>
  <path id="Path_29" data-name="Path 29" d="M256,144h1.5v1.5H256Zm0,0" transform="translate(-231.931 -130.461)" fill="#fff"/>
  <path id="Path_30" data-name="Path 30" d="M64,176h1.5v1.5H64Zm0,0" transform="translate(-57.983 -159.452)" fill="#fff"/>
  <path id="Path_31" data-name="Path 31" d="M64,208h3.009v1.5H64Zm0,0" transform="translate(-57.983 -188.444)" fill="#fff"/>
  <path id="Path_32" data-name="Path 32" d="M64,240h3.009v1.5H64Zm0,0" transform="translate(-57.983 -217.435)" fill="#fff"/>
  <path id="Path_33" data-name="Path 33" d="M64,272h6.017v1.5H64Zm0,0" transform="translate(-57.983 -246.426)" fill="#fff"/>
  <path id="Path_34" data-name="Path 34" d="M64,304h9.026v1.5H64Zm0,0" transform="translate(-57.983 -275.418)" fill="#fff"/>
</svg>
